<?xml version="1.0" encoding="UTF-8" standalone="no"?>
<!DOCTYPE svg PUBLIC "-//W3C//DTD SVG 1.1//EN" "http://www.w3.org/Graphics/SVG/1.1/DTD/svg11.dtd">
<svg width="100%" height="100%" viewBox="0 0 1080 1080" version="1.1" xmlns="http://www.w3.org/2000/svg" xmlns:xlink="http://www.w3.org/1999/xlink" xml:space="preserve" xmlns:serif="http://www.serif.com/" style="fill-rule:evenodd;clip-rule:evenodd;stroke-linecap:round;stroke-linejoin:round;stroke-miterlimit:1.5;">
    <g id="Refined-Devs-1" serif:id="Refined Devs 1">
        <g transform="matrix(0.893507,0,0,0.893507,70.58,101.221)">
            <circle cx="525.368" cy="491.075" r="352.075" style="fill:rgb(184,16,7);stroke:rgb(184,16,7);stroke-width:22.38px;"/>
        </g>
        <g transform="matrix(0.939891,0,0,0.913074,-68.4946,76.3609)">
            <g transform="matrix(140,0,0,140,389.11,485.588)">
                <path d="M0.119,-0.497L-0.012,-0.497L-0.012,-0.7L0.504,-0.7L0.504,-0.497L0.373,-0.497L0.373,-0L0.119,-0L0.119,-0.497Z" style="fill:white;fill-rule:nonzero;"/>
            </g>
            <g transform="matrix(140,0,0,140,452.39,485.588)">
                <path d="M0.259,0.011C0.206,0.011 0.16,0 0.121,-0.021C0.082,-0.043 0.051,-0.073 0.029,-0.111C0.008,-0.15 -0.003,-0.193 -0.003,-0.242C-0.003,-0.291 0.008,-0.335 0.029,-0.373C0.051,-0.412 0.081,-0.441 0.12,-0.462C0.159,-0.483 0.203,-0.494 0.252,-0.494C0.301,-0.494 0.343,-0.483 0.378,-0.462C0.414,-0.441 0.441,-0.412 0.46,-0.374C0.479,-0.337 0.489,-0.293 0.489,-0.243L0.489,-0.203L0.195,-0.203C0.207,-0.158 0.24,-0.136 0.295,-0.136C0.318,-0.136 0.342,-0.14 0.366,-0.148C0.39,-0.156 0.409,-0.165 0.423,-0.176L0.423,-0.027C0.404,-0.016 0.379,-0.007 0.348,-0C0.318,0.007 0.288,0.011 0.259,0.011ZM0.309,-0.297C0.306,-0.312 0.3,-0.323 0.291,-0.33C0.282,-0.338 0.271,-0.342 0.258,-0.342C0.231,-0.342 0.211,-0.327 0.199,-0.297L0.309,-0.297Z" style="fill:white;fill-rule:nonzero;"/>
            </g>
            <g transform="matrix(140,0,0,140,526.17,485.588)">
                <path d="M0.25,0.011C0.202,0.011 0.158,0 0.119,-0.022C0.08,-0.045 0.05,-0.075 0.028,-0.114C0.006,-0.153 -0.005,-0.195 -0.005,-0.241C-0.005,-0.287 0.006,-0.329 0.028,-0.368C0.05,-0.407 0.08,-0.437 0.119,-0.46C0.158,-0.483 0.202,-0.494 0.25,-0.494C0.297,-0.494 0.34,-0.483 0.377,-0.46L0.377,-0.284C0.36,-0.293 0.344,-0.299 0.329,-0.303C0.315,-0.307 0.298,-0.309 0.279,-0.309C0.255,-0.309 0.237,-0.303 0.224,-0.29C0.212,-0.277 0.206,-0.261 0.206,-0.241C0.206,-0.221 0.212,-0.205 0.224,-0.192C0.237,-0.18 0.255,-0.174 0.279,-0.174C0.322,-0.174 0.354,-0.187 0.377,-0.214L0.377,-0.021C0.338,0 0.296,0.011 0.25,0.011Z" style="fill:white;fill-rule:nonzero;"/>
            </g>
            <g transform="matrix(140,0,0,140,585.81,485.588)">
                <path d="M0.32,-0.261C0.32,-0.275 0.317,-0.286 0.31,-0.293C0.304,-0.3 0.296,-0.304 0.285,-0.304C0.271,-0.304 0.26,-0.298 0.252,-0.286C0.244,-0.274 0.24,-0.258 0.24,-0.237L0.24,-0L0.03,-0L0.03,-0.7L0.24,-0.7L0.24,-0.44C0.271,-0.476 0.314,-0.494 0.369,-0.494C0.422,-0.494 0.462,-0.477 0.489,-0.444C0.516,-0.411 0.53,-0.365 0.53,-0.304L0.53,-0L0.32,-0L0.32,-0.261Z" style="fill:white;fill-rule:nonzero;"/>
            </g>
            <g transform="matrix(140,0,0,140,665.47,485.588)">
                <path d="M0.038,-0.7L0.294,-0.7C0.375,-0.7 0.446,-0.685 0.505,-0.656C0.564,-0.627 0.61,-0.587 0.641,-0.534C0.672,-0.481 0.688,-0.42 0.688,-0.35C0.688,-0.28 0.672,-0.219 0.641,-0.166C0.61,-0.113 0.564,-0.072 0.505,-0.043C0.446,-0.014 0.375,-0 0.294,-0L0.038,-0L0.038,-0.7ZM0.298,-0.203C0.344,-0.203 0.378,-0.217 0.4,-0.244C0.423,-0.271 0.434,-0.307 0.434,-0.35C0.434,-0.393 0.423,-0.429 0.4,-0.456C0.378,-0.483 0.344,-0.497 0.298,-0.497L0.291,-0.497L0.291,-0.203L0.298,-0.203Z" style="fill:white;fill-rule:nonzero;"/>
            </g>
            <g transform="matrix(140,0,0,140,766.41,485.588)">
                <path d="M0.259,0.011C0.206,0.011 0.16,0 0.121,-0.021C0.082,-0.043 0.051,-0.073 0.029,-0.111C0.008,-0.15 -0.003,-0.193 -0.003,-0.242C-0.003,-0.291 0.008,-0.335 0.029,-0.373C0.051,-0.412 0.081,-0.441 0.12,-0.462C0.159,-0.483 0.203,-0.494 0.252,-0.494C0.301,-0.494 0.343,-0.483 0.378,-0.462C0.414,-0.441 0.441,-0.412 0.46,-0.374C0.479,-0.337 0.489,-0.293 0.489,-0.243L0.489,-0.203L0.195,-0.203C0.207,-0.158 0.24,-0.136 0.295,-0.136C0.318,-0.136 0.342,-0.14 0.366,-0.148C0.39,-0.156 0.409,-0.165 0.423,-0.176L0.423,-0.027C0.404,-0.016 0.379,-0.007 0.348,-0C0.318,0.007 0.288,0.011 0.259,0.011ZM0.309,-0.297C0.306,-0.312 0.3,-0.323 0.291,-0.33C0.282,-0.338 0.271,-0.342 0.258,-0.342C0.231,-0.342 0.211,-0.327 0.199,-0.297L0.309,-0.297Z" style="fill:white;fill-rule:nonzero;"/>
            </g>
            <g transform="matrix(140,0,0,140,836.41,485.588)">
                <path d="M0.134,-0L-0.026,-0.483L0.184,-0.483L0.24,-0.237L0.297,-0.483L0.507,-0.483L0.347,-0L0.134,-0Z" style="fill:white;fill-rule:nonzero;"/>
            </g>
            <g transform="matrix(140,0,0,140,472.76,625.588)">
                <path d="M0.335,0.017C0.27,0.017 0.212,0.002 0.161,-0.029C0.11,-0.06 0.069,-0.103 0.04,-0.158C0.011,-0.214 -0.003,-0.278 -0.003,-0.35C-0.003,-0.422 0.011,-0.486 0.04,-0.541C0.069,-0.597 0.11,-0.64 0.161,-0.671C0.212,-0.702 0.27,-0.717 0.335,-0.717C0.402,-0.717 0.462,-0.701 0.517,-0.669L0.517,-0.432C0.497,-0.452 0.477,-0.468 0.458,-0.479C0.439,-0.491 0.415,-0.497 0.386,-0.497C0.345,-0.497 0.312,-0.483 0.287,-0.456C0.263,-0.429 0.251,-0.394 0.251,-0.35C0.251,-0.306 0.263,-0.27 0.287,-0.243C0.311,-0.216 0.343,-0.203 0.384,-0.203C0.415,-0.203 0.443,-0.211 0.467,-0.227C0.491,-0.243 0.508,-0.264 0.517,-0.289L0.517,-0.03C0.463,0.001 0.402,0.017 0.335,0.017Z" style="fill:white;fill-rule:nonzero;"/>
            </g>
            <g transform="matrix(140,0,0,140,553.4,625.588)">
                <path d="M0.03,-0.483L0.24,-0.483L0.24,-0L0.03,-0L0.03,-0.483ZM0.135,-0.511C0.098,-0.511 0.067,-0.521 0.044,-0.54C0.021,-0.56 0.01,-0.586 0.01,-0.617C0.01,-0.65 0.021,-0.676 0.044,-0.695C0.067,-0.715 0.098,-0.725 0.135,-0.725C0.172,-0.725 0.202,-0.715 0.225,-0.695C0.248,-0.676 0.259,-0.65 0.259,-0.617C0.259,-0.586 0.247,-0.56 0.224,-0.54C0.201,-0.521 0.172,-0.511 0.135,-0.511Z" style="fill:white;fill-rule:nonzero;"/>
            </g>
            <g transform="matrix(140,0,0,140,594,625.588)">
                <path d="M0.03,-0.483L0.228,-0.483L0.228,-0.414C0.261,-0.467 0.308,-0.494 0.367,-0.494C0.376,-0.494 0.385,-0.493 0.394,-0.492L0.394,-0.286C0.374,-0.295 0.354,-0.3 0.333,-0.3C0.307,-0.3 0.285,-0.292 0.267,-0.276C0.249,-0.261 0.24,-0.238 0.24,-0.207L0.24,-0L0.03,-0L0.03,-0.483Z" style="fill:white;fill-rule:nonzero;"/>
            </g>
            <g transform="matrix(140,0,0,140,652.66,625.588)">
                <path d="M0.25,0.011C0.202,0.011 0.158,0 0.119,-0.022C0.08,-0.045 0.05,-0.075 0.028,-0.114C0.006,-0.153 -0.005,-0.195 -0.005,-0.241C-0.005,-0.287 0.006,-0.329 0.028,-0.368C0.05,-0.407 0.08,-0.437 0.119,-0.46C0.158,-0.483 0.202,-0.494 0.25,-0.494C0.297,-0.494 0.34,-0.483 0.377,-0.46L0.377,-0.284C0.36,-0.293 0.344,-0.299 0.329,-0.303C0.315,-0.307 0.298,-0.309 0.279,-0.309C0.255,-0.309 0.237,-0.303 0.224,-0.29C0.212,-0.277 0.206,-0.261 0.206,-0.241C0.206,-0.221 0.212,-0.205 0.224,-0.192C0.237,-0.18 0.255,-0.174 0.279,-0.174C0.322,-0.174 0.354,-0.187 0.377,-0.214L0.377,-0.021C0.338,0 0.296,0.011 0.25,0.011Z" style="fill:white;fill-rule:nonzero;"/>
            </g>
            <g transform="matrix(140,0,0,140,712.3,625.588)">
                <rect x="0.03" y="-0.7" width="0.21" height="0.7" style="fill:white;fill-rule:nonzero;"/>
            </g>
            <g transform="matrix(140,0,0,140,752.9,625.588)">
                <path d="M0.259,0.011C0.206,0.011 0.16,0 0.121,-0.021C0.082,-0.043 0.051,-0.073 0.029,-0.111C0.008,-0.15 -0.003,-0.193 -0.003,-0.242C-0.003,-0.291 0.008,-0.335 0.029,-0.373C0.051,-0.412 0.081,-0.441 0.12,-0.462C0.159,-0.483 0.203,-0.494 0.252,-0.494C0.301,-0.494 0.343,-0.483 0.378,-0.462C0.414,-0.441 0.441,-0.412 0.46,-0.374C0.479,-0.337 0.489,-0.293 0.489,-0.243L0.489,-0.203L0.195,-0.203C0.207,-0.158 0.24,-0.136 0.295,-0.136C0.318,-0.136 0.342,-0.14 0.366,-0.148C0.39,-0.156 0.409,-0.165 0.423,-0.176L0.423,-0.027C0.404,-0.016 0.379,-0.007 0.348,-0C0.318,0.007 0.288,0.011 0.259,0.011ZM0.309,-0.297C0.306,-0.312 0.3,-0.323 0.291,-0.33C0.282,-0.338 0.271,-0.342 0.258,-0.342C0.231,-0.342 0.211,-0.327 0.199,-0.297L0.309,-0.297Z" style="fill:white;fill-rule:nonzero;"/>
            </g>
        </g>
        <g transform="matrix(1.23892,0,0,1.23892,468.057,38.0973)">
            <circle cx="58.069" cy="405.114" r="371.279" style="fill:none;stroke:rgb(184,16,7);stroke-width:16.14px;"/>
        </g>
        <g transform="matrix(-1.27845,1.56565e-16,-1.56565e-16,-1.27845,701.394,1715.78)">
            <g transform="matrix(0,-1.10914,-1.10914,0,126.242,534.967)">
                <path d="M-24.578,-24.578C-38.154,-24.578 -49.156,-13.574 -49.156,-0.001C-49.156,13.574 -38.154,24.578 -24.578,24.578C-11.003,24.578 -0,13.574 -0,-0.001C-0,-13.574 -11.003,-24.578 -24.578,-24.578" style="fill:rgb(184,16,7);fill-rule:nonzero;"/>
            </g>
            <g transform="matrix(1,0,0,1,170.392,581.28)">
                <path d="M0,75.307L-9.9,65.408L19.013,36.494L-7.583,9.899L2.317,0L38.812,36.494L0,75.307ZM-88.296,75.307L-127.112,36.494L-90.617,0L-80.717,9.899L-107.312,36.494L-78.396,65.407L-88.296,75.307Z" style="fill:rgb(177,177,177);fill-rule:nonzero;"/>
            </g>
        </g>
        <g transform="matrix(-1.27845,1.56565e-16,-1.56565e-16,-1.27845,701.394,1715.78)">
            <g transform="matrix(0,-1.10914,-1.10914,0,126.242,534.967)">
                <path d="M-24.578,-24.578C-38.154,-24.578 -49.156,-13.574 -49.156,-0.001C-49.156,13.574 -38.154,24.578 -24.578,24.578C-11.003,24.578 -0,13.574 -0,-0.001C-0,-13.574 -11.003,-24.578 -24.578,-24.578" style="fill:rgb(184,16,7);fill-rule:nonzero;"/>
            </g>
            <g transform="matrix(1,0,0,1,170.392,581.28)">
                <path d="M0,75.307L-9.9,65.408L19.013,36.494L-7.583,9.899L2.317,0L38.812,36.494L0,75.307ZM-88.296,75.307L-127.112,36.494L-90.617,0L-80.717,9.899L-107.312,36.494L-78.396,65.407L-88.296,75.307Z" style="fill:rgb(177,177,177);fill-rule:nonzero;"/>
            </g>
        </g>
        <g transform="matrix(7.82823e-17,1.27845,-1.27845,7.82823e-17,1715.78,378.606)">
            <g transform="matrix(0,-1.10914,-1.10914,0,126.242,534.967)">
                <path d="M-24.578,-24.578C-38.154,-24.578 -49.156,-13.574 -49.156,-0.001C-49.156,13.574 -38.154,24.578 -24.578,24.578C-11.003,24.578 -0,13.574 -0,-0.001C-0,-13.574 -11.003,-24.578 -24.578,-24.578" style="fill:rgb(184,16,7);fill-rule:nonzero;"/>
            </g>
            <g transform="matrix(1,0,0,1,170.392,581.28)">
                <path d="M0,75.307L-9.9,65.408L19.013,36.494L-7.583,9.899L2.317,0L38.812,36.494L0,75.307ZM-88.296,75.307L-127.112,36.494L-90.617,0L-80.717,9.899L-107.312,36.494L-78.396,65.407L-88.296,75.307Z" style="fill:rgb(177,177,177);fill-rule:nonzero;"/>
            </g>
        </g>
        <g transform="matrix(1.27845,0,0,1.27845,378.606,-635.784)">
            <g transform="matrix(0,-1.10914,-1.10914,0,126.242,534.967)">
                <path d="M-24.578,-24.578C-38.154,-24.578 -49.156,-13.574 -49.156,-0.001C-49.156,13.574 -38.154,24.578 -24.578,24.578C-11.003,24.578 -0,13.574 -0,-0.001C-0,-13.574 -11.003,-24.578 -24.578,-24.578" style="fill:rgb(184,16,7);fill-rule:nonzero;"/>
            </g>
            <g transform="matrix(1,0,0,1,170.392,581.28)">
                <path d="M0,75.307L-9.9,65.408L19.013,36.494L-7.583,9.899L2.317,0L38.812,36.494L0,75.307ZM-88.296,75.307L-127.112,36.494L-90.617,0L-80.717,9.899L-107.312,36.494L-78.396,65.407L-88.296,75.307Z" style="fill:rgb(177,177,177);fill-rule:nonzero;"/>
            </g>
        </g>
        <g transform="matrix(7.82823e-17,-1.27845,1.27845,7.82823e-17,-635.784,701.394)">
            <g transform="matrix(0,-1.10914,-1.10914,0,126.242,534.967)">
                <path d="M-24.578,-24.578C-38.154,-24.578 -49.156,-13.574 -49.156,-0.001C-49.156,13.574 -38.154,24.578 -24.578,24.578C-11.003,24.578 -0,13.574 -0,-0.001C-0,-13.574 -11.003,-24.578 -24.578,-24.578" style="fill:rgb(184,16,7);fill-rule:nonzero;"/>
            </g>
            <g transform="matrix(1,0,0,1,170.392,581.28)">
                <path d="M0,75.307L-9.9,65.408L19.013,36.494L-7.583,9.899L2.317,0L38.812,36.494L0,75.307ZM-88.296,75.307L-127.112,36.494L-90.617,0L-80.717,9.899L-107.312,36.494L-78.396,65.407L-88.296,75.307Z" style="fill:rgb(177,177,177);fill-rule:nonzero;"/>
            </g>
        </g>
    </g>
</svg>
